{
  "music.good_dream": {
    "category": "music",
    "sounds":[
      {
        "name": "good_nights_sleep:music/good_dream",
        "stream": true
      }
    ]
  },
  "music.sky_blue": {
    "category": "music",
    "sounds":[
      {
        "name": "good_nights_sleep:music/sky_blue",
        "stream": true
      }
    ]
  },
  "music.tfarcenim": {
    "category": "music",
    "sounds":[
      {
        "name": "good_nights_sleep:music/tfarcenim",
        "stream": true
      }
    ]
  },
  "entity.tormenter.idle": {
      "category": "hostile",
    "subtitle": "subtitles.entity.tormenter.idle",
    "sounds": [
        {
        "name": "ambient.cave",
        "type": "event"
      }
    ]
  },
  "entity.tormenter.hurt": {
    "category": "hostile",
    "subtitle": "subtitles.entity.tormenter.hurt",
    "sounds": [
      {
        "name": "ambient.cave",
        "type": "event"
      }
    ]
  },
  "entity.tormenter.death": {
    "category": "hostile",
    "subtitle": "subtitles.entity.tormenter.death",
    "sounds": [
      {
        "name": "entity.zombie_horse.death",
        "type": "event"
      }
    ]
  },
  "entity.tormenter.torment": {
    "category": "hostile",
    "subtitle": "subtitles.entity.tormenter.torment",
    "sounds": [
        "mob/guardian/curse"
    ]
  },
  "entity.unicorn.idle": {
    "category": "neutral",
    "subtitle": "subtitles.entity.unicorn.idle",
    "sounds": [
        "mob/horse/idle1",
        "mob/horse/idle2",
        "mob/horse/idle3"
    ]
  },
  "entity.unicorn.hurt": {
    "category": "neutral",
    "subtitle": "subtitles.entity.unicorn.hurt",
    "sounds": [
        "mob/horse/hit1",
        "mob/horse/hit2",
        "mob/horse/hit3",
        "mob/horse/hit4"
    ]
  },
  "entity.unicorn.death": {
    "category": "neutral",
    "subtitle": "subtitles.entity.unicorn.death",
    "sounds": [
        "mob/horse/death"
    ]
  },
  "entity.herobrine.hurt": {
    "category": "hostile",
    "subtitle": "subtitles.entity.herobrine.hurt",
    "sounds": [
      {
        "name": "entity.wither.hurt",
        "type": "event"
      }
    ]
  },
  "entity.herobrine.death": {
    "category": "hostile",
    "subtitle": "subtitles.entity.herobrine.death",
    "sounds": [
      {
        "name": "entity.wither.death",
        "type": "event"
      }
    ]
  },
  "item.armor.equip_candy": {
    "category": "hostile",
    "subtitle": "subtitles.item.armor.equip_candy",
    "sounds": [
      {
        "name": "item.armor.equip_leather",
        "type": "event"
      }
    ]
  },
  "item.armor.equip_rainbow": {
    "category": "hostile",
    "subtitle": "subtitles.item.armor.equip_rainbow",
    "sounds": [
      {
        "name": "item.armor.equip_iron",
        "type": "event"
      }
    ]
  },
  "item.armor.equip_positite": {
    "category": "hostile",
    "subtitle": "subtitles.item.armor.equip_positite",
    "sounds": [
      {
        "name": "item.armor.equip_diamond",
        "type": "event"
      }
    ]
  },
  "item.armor.equip_zitrite": {
    "category": "hostile",
    "subtitle": "subtitles.item.armor.equip_zitrite",
    "sounds": [
      {
        "name": "item.armor.equip_iron",
        "type": "event"
      }
    ]
  },
  "item.armor.equip_negatite": {
    "category": "hostile",
    "subtitle": "subtitles.item.armor.equip_negatite",
    "sounds": [
      {
        "name": "item.armor.equip_diamond",
        "type": "event"
      }
    ]
  }
}