{
    "parent": "block/farmland",
    "textures": {
        "particle": "good_nights_sleep:block/dream_dirt",
        "dirt": "good_nights_sleep:block/dream_dirt",
        "top": "good_nights_sleep:block/dream_farmland_dry"
    }
}
