{
    "parent": "block/cube_column",
    "display": {
        "firstperson_righthand": {
            "rotation": [ 0, 135, 0 ],
            "translation": [ 0, 0, 0 ],
            "scale": [ 0.40, 0.40, 0.40 ]
        }
    },
    "textures": {
        "end": "good_nights_sleep:block/present_top",
        "side": "good_nights_sleep:block/present_side"
    }
}
