{
    "textures": {
        "particle": "good_nights_sleep:block/rainbow_start",
        "front": "good_nights_sleep:block/rainbow_end",
        "back": "good_nights_sleep:block/rainbow_start"
    },
    "elements": [
        {   "from": [ 6, 0, 0 ],
            "to": [ 10, 16, 16 ],
            "faces": {
                "east": { "uv": [ 0, 0, 16, 16 ], "texture": "#back" },
                "west": { "uv": [ 0, 0, 16, 16 ], "texture": "#front" }
            }
        }
    ]
}
