{
    "textures": {
        "particle": "good_nights_sleep:block/rainbow_start",
        "front": "good_nights_sleep:block/rainbow_end",
        "back": "good_nights_sleep:block/rainbow_start"
    },
    "elements": [
        {   "from": [ 0, 0, 6 ],
            "to": [ 16, 16, 10 ],
            "faces": {
                "north": { "uv": [ 0, 0, 16, 16 ], "texture": "#front" },
                "south": { "uv": [ 0, 0, 16, 16 ], "texture": "#back" }
            }
        }
    ]
}
