{
  "type": "minecraft:crafting_shaped",
  "group": "wooden_door",
  "pattern": [
    "##",
    "##",
    "##"
  ],
  "key": {
    "#": {
      "item": "good_nights_sleep:blood_planks"
    }
  },
  "result": {
    "item": "good_nights_sleep:blood_door",
    "count": 3
  }
}