{
  "type": "minecraft:crafting_shaped",
  "pattern": [
    "###",
    "###"
  ],
  "key": {
    "#": {
      "item": "good_nights_sleep:delusion_cobblestone"
    }
  },
  "result": {
    "item": "good_nights_sleep:delusion_cobblestone_wall",
    "count": 6
  }
}