{
  "type": "minecraft:crafting_shaped",
  "pattern": [
    "###",
    "# #"
  ],
  "key": {
    "#": {
      "tag": "good_nights_sleep:gems/negatite"
    }
  },
  "result": {
    "item": "good_nights_sleep:negatite_helmet"
  }
}