{
  "type": "minecraft:crafting_shaped",
  "pattern": [
    "###",
    "###",
    "###"
  ],
  "key": {
    "#": {
      "tag": "good_nights_sleep:gems/positite"
    }
  },
  "result": {
    "item": "good_nights_sleep:positite_block"
  }
}